[api-updater (non-obsolete-error-filter)] 28.06.2022 17:57:44 : Starting C:/Program Files/Unity/Hub/Editor/2020.3.18f1/Editor/Data/Tools/ScriptUpdater/APIUpdater.NonObsoleteApiUpdaterDetector.exe
[api-updater (non-obsolete-error-filter)] 
----------------------------------
jit/startup time      : 1374,393ms
moved types parse time: 79ms
candidates parse time : 1ms
C# parse time         : 436ms
candidates check time : 43ms
console write time    : 0ms

[api-updater (non-obsolete-error-filter)] 28.06.2022 19:15:50 : Starting C:/Program Files/Unity/Hub/Editor/2020.3.18f1/Editor/Data/Tools/ScriptUpdater/APIUpdater.NonObsoleteApiUpdaterDetector.exe
[api-updater (non-obsolete-error-filter)] 
----------------------------------
jit/startup time      : 119,7114ms
moved types parse time: 61ms
candidates parse time : 1ms
C# parse time         : 253ms
candidates check time : 39ms
console write time    : 0ms

